[gd_resource type="TileSet" load_steps=15 format=2]

[ext_resource path="res://Environment/Maps/most_basic_tilemap.png" type="Texture" id=1]

[sub_resource type="OccluderPolygon2D" id=1]
polygon = PoolVector2Array( 18.1314, 0, 0.046936, 0, 0.046936, 64, 18.1314, 64 )

[sub_resource type="ConvexPolygonShape2D" id=2]
points = PoolVector2Array( 0, 0, 17.7296, 0, 18.1314, 64, 0, 63.3035 )

[sub_resource type="OccluderPolygon2D" id=3]
polygon = PoolVector2Array( 18.4318, 0, 0.749207, 0, 0.749207, 63.8813, 18.4318, 63.8813 )

[sub_resource type="ConvexPolygonShape2D" id=4]
points = PoolVector2Array( 18.0482, 64, 0.365616, 64, 0.365616, 0.61058, 18.0482, 0 )

[sub_resource type="OccluderPolygon2D" id=5]
polygon = PoolVector2Array( 18.1314, 63.955, 0, 63.955, 0, 46.2724, 18.1314, 46.2724 )

[sub_resource type="ConvexPolygonShape2D" id=6]
points = PoolVector2Array( 0, 46.2448, 17.7296, 46.2448, 17.7296, 64, 0, 64 )

[sub_resource type="ConvexPolygonShape2D" id=7]
points = PoolVector2Array( 0, 0, 64, 0, 64, 64, 0, 64 )

[sub_resource type="OccluderPolygon2D" id=8]
polygon = PoolVector2Array( 18.4318, 63.652, 0.347351, 63.652, 0.347351, 45.1657, 18.4318, 45.1657 )

[sub_resource type="ConvexPolygonShape2D" id=9]
points = PoolVector2Array( 18.0482, 64, 0.365616, 64, 0.365616, 46.2448, 18.0482, 46.2448 )

[sub_resource type="OccluderPolygon2D" id=10]
polygon = PoolVector2Array( 0.513504, 0.479965, 17.7942, 0.479965, 17.5555, 45.882, 63.3889, 45.1876, 64, 64, 0.194458, 63.9376 )

[sub_resource type="ConvexPolygonShape2D" id=11]
points = PoolVector2Array( 18.2651, 45.8924, 63.6772, 46.2943, 63.6772, 64, 0, 63.575, 0.180588, 0.0783463, 18.2651, 0 )

[sub_resource type="OccluderPolygon2D" id=12]
polygon = PoolVector2Array( 0.412033, 0, 18.0947, 0.0780945, 18.0947, 45.4902, 63.5068, 45.8921, 63.5068, 63.5747, 0, 64 )

[sub_resource type="ConvexPolygonShape2D" id=13]
points = PoolVector2Array( 0.0791168, 0.882103, 18.1636, 0.480232, 17.7617, 46.2943, 64, 46.2943, 64, 64, 0.0791168, 63.9769 )

[resource]
0/name = "plain_white"
0/texture = ExtResource( 1 )
0/tex_offset = Vector2( 0, 0 )
0/modulate = Color( 1, 1, 1, 1 )
0/region = Rect2( 0, 0, 64, 64 )
0/tile_mode = 0
0/occluder_offset = Vector2( 0, 0 )
0/navigation_offset = Vector2( 0, 0 )
0/shape_offset = Vector2( 0, 0 )
0/shape_transform = Transform2D( 1, 0, 0, 1, 0, 0 )
0/shape_one_way = false
0/shape_one_way_margin = 0.0
0/shapes = [  ]
0/z_index = 0
1/name = "plain_green"
1/texture = ExtResource( 1 )
1/tex_offset = Vector2( 0, 0 )
1/modulate = Color( 1, 1, 1, 1 )
1/region = Rect2( 64, 0, 64, 64 )
1/tile_mode = 0
1/occluder_offset = Vector2( 0, 0 )
1/navigation_offset = Vector2( 0, 0 )
1/shape_offset = Vector2( 0, 0 )
1/shape_transform = Transform2D( 1, 0, 0, 1, 0, 0 )
1/shape_one_way = false
1/shape_one_way_margin = 0.0
1/shapes = [  ]
1/z_index = 0
2/name = "white_wall"
2/texture = ExtResource( 1 )
2/tex_offset = Vector2( 0, 0 )
2/modulate = Color( 1, 1, 1, 1 )
2/region = Rect2( 0, 128, 64, 64 )
2/tile_mode = 0
2/occluder_offset = Vector2( 0, 0 )
2/occluder = SubResource( 1 )
2/navigation_offset = Vector2( 0, 0 )
2/shape_offset = Vector2( 0, 0 )
2/shape_transform = Transform2D( 1, 0, 0, 1, 0, 0 )
2/shape = SubResource( 2 )
2/shape_one_way = false
2/shape_one_way_margin = 1.0
2/shapes = [ {
"autotile_coord": Vector2( 0, 0 ),
"one_way": false,
"one_way_margin": 1.0,
"shape": SubResource( 2 ),
"shape_transform": Transform2D( 1, 0, 0, 1, 0, 0 )
} ]
2/z_index = 0
3/name = "green_wall"
3/texture = ExtResource( 1 )
3/tex_offset = Vector2( 0, 0 )
3/modulate = Color( 1, 1, 1, 1 )
3/region = Rect2( 64, 128, 64, 64 )
3/tile_mode = 0
3/occluder_offset = Vector2( 0, 0 )
3/occluder = SubResource( 3 )
3/navigation_offset = Vector2( 0, 0 )
3/shape_offset = Vector2( 0, 0 )
3/shape_transform = Transform2D( 1, 0, 0, 1, 0, 0 )
3/shape = SubResource( 4 )
3/shape_one_way = false
3/shape_one_way_margin = 1.0
3/shapes = [ {
"autotile_coord": Vector2( 0, 0 ),
"one_way": false,
"one_way_margin": 1.0,
"shape": SubResource( 4 ),
"shape_transform": Transform2D( 1, 0, 0, 1, 0, 0 )
} ]
3/z_index = 0
4/name = "white_outer_corner"
4/texture = ExtResource( 1 )
4/tex_offset = Vector2( 0, 0 )
4/modulate = Color( 1, 1, 1, 1 )
4/region = Rect2( 0, 64, 64, 64 )
4/tile_mode = 0
4/occluder_offset = Vector2( 0, 0 )
4/occluder = SubResource( 5 )
4/navigation_offset = Vector2( 0, 0 )
4/shape_offset = Vector2( 0, 0 )
4/shape_transform = Transform2D( 1, 0, 0, 1, 0, 0 )
4/shape = SubResource( 6 )
4/shape_one_way = false
4/shape_one_way_margin = 1.0
4/shapes = [ {
"autotile_coord": Vector2( 0, 0 ),
"one_way": false,
"one_way_margin": 1.0,
"shape": SubResource( 6 ),
"shape_transform": Transform2D( 1, 0, 0, 1, 0, 0 )
}, {
"autotile_coord": Vector2( 0, 0 ),
"one_way": false,
"one_way_margin": 1.0,
"shape": SubResource( 7 ),
"shape_transform": Transform2D( 1, 0, 0, 1, 0, 0 )
} ]
4/z_index = 0
5/name = "green_outer_corner"
5/texture = ExtResource( 1 )
5/tex_offset = Vector2( 0, 0 )
5/modulate = Color( 1, 1, 1, 1 )
5/region = Rect2( 64, 64, 64, 64 )
5/tile_mode = 0
5/occluder_offset = Vector2( 0, 0 )
5/occluder = SubResource( 8 )
5/navigation_offset = Vector2( 0, 0 )
5/shape_offset = Vector2( 0, 0 )
5/shape_transform = Transform2D( 1, 0, 0, 1, 0, 0 )
5/shape = SubResource( 9 )
5/shape_one_way = false
5/shape_one_way_margin = 1.0
5/shapes = [ {
"autotile_coord": Vector2( 0, 0 ),
"one_way": false,
"one_way_margin": 1.0,
"shape": SubResource( 9 ),
"shape_transform": Transform2D( 1, 0, 0, 1, 0, 0 )
} ]
5/z_index = 0
6/name = "white_nner_corner"
6/texture = ExtResource( 1 )
6/tex_offset = Vector2( 0, 0 )
6/modulate = Color( 1, 1, 1, 1 )
6/region = Rect2( 128, 64, 64, 64 )
6/tile_mode = 0
6/occluder_offset = Vector2( 0, 0 )
6/occluder = SubResource( 10 )
6/navigation_offset = Vector2( 0, 0 )
6/shape_offset = Vector2( 0, 0 )
6/shape_transform = Transform2D( 1, 0, 0, 1, 0, 0 )
6/shape = SubResource( 11 )
6/shape_one_way = false
6/shape_one_way_margin = 1.0
6/shapes = [ {
"autotile_coord": Vector2( 0, 0 ),
"one_way": false,
"one_way_margin": 1.0,
"shape": SubResource( 11 ),
"shape_transform": Transform2D( 1, 0, 0, 1, 0, 0 )
} ]
6/z_index = 0
7/name = "green_inner_corner"
7/texture = ExtResource( 1 )
7/tex_offset = Vector2( 0, 0 )
7/modulate = Color( 1, 1, 1, 1 )
7/region = Rect2( 192, 64, 64, 64 )
7/tile_mode = 0
7/occluder_offset = Vector2( 0, 0 )
7/occluder = SubResource( 12 )
7/navigation_offset = Vector2( 0, 0 )
7/shape_offset = Vector2( 0, 0 )
7/shape_transform = Transform2D( 1, 0, 0, 1, 0, 0 )
7/shape = SubResource( 13 )
7/shape_one_way = false
7/shape_one_way_margin = 1.0
7/shapes = [ {
"autotile_coord": Vector2( 0, 0 ),
"one_way": false,
"one_way_margin": 1.0,
"shape": SubResource( 13 ),
"shape_transform": Transform2D( 1, 0, 0, 1, 0, 0 )
} ]
7/z_index = 0
