[gd_resource type="ParticlesMaterial" load_steps=3 format=2]

[sub_resource type="Gradient" id=1]
offsets = PoolRealArray( 0, 0.708571, 1 )
colors = PoolColorArray( 0.972549, 0.439216, 0.0235294, 1, 0.368627, 0.027451, 0.00392157, 1, 0, 0, 0, 1 )

[sub_resource type="GradientTexture" id=2]
gradient = SubResource( 1 )

[resource]
lifetime_randomness = 0.2
emission_shape = 1
emission_sphere_radius = 1.0
flag_disable_z = true
direction = Vector3( -90, 0, 0 )
spread = 50.0
gravity = Vector3( 0, 0, 0 )
initial_velocity = 60.0
initial_velocity_random = 0.5
angular_velocity = 2.0
angular_velocity_random = 1.0
orbit_velocity = 0.0
orbit_velocity_random = 0.0
damping = 4.0
damping_random = 1.0
scale_random = 0.5
color_ramp = SubResource( 2 )
